<?xml version="1.0" encoding="utf-8"?>
<!-- Generator: Adobe Illustrator 18.0.0, SVG Export Plug-In . SVG Version: 6.00 Build 0)  -->
<!DOCTYPE svg PUBLIC "-//W3C//DTD SVG 1.1//EN" "http://www.w3.org/Graphics/SVG/1.1/DTD/svg11.dtd">
<svg version="1.1" id="Calque_1" xmlns="http://www.w3.org/2000/svg" xmlns:xlink="http://www.w3.org/1999/xlink" x="0px" y="0px"
	 viewBox="0 0 500 110" enable-background="new 0 0 500 110" xml:space="preserve">
<path fill="#B8B8B8" d="M483.9,76.6H16c-8.8,0-16-7.3-16-16V49.4c0-8.8,7.3-16,16-16h467.9c8.9,0,16,7.3,16,16v11.2
	C500,69.4,492.7,76.6,483.9,76.6z"/>
<rect x="47.3" y="42.6" fill="none" width="405.3" height="24.9"/>
<text transform="matrix(1 0 0 1 47.2974 64.6455)" fill="#FFFFFF" font-family="'Quicksand-Regular'" font-size="29.8329">Cliquer ici pour revenir au site </text>
</svg>
